Equivocal zones
…
# Say you aren't sure about that 2nd "Yes" value. 
# You could mark it as equivocal.
class_pred(x, which = 3)
#> [1] Yes  No   [EQ] Yes 
#> Levels: No Yes
#> Reportable: 75%

The reportable rate is the fraction of values that are not equivocal, relative to the total number. Above, you can see that the reportable rate started at 100%, but as soon as a single value was marked equivocal, that value dropped to 75%. In fields where equivocal zones are used, there is often a tradeoff between marking values as equivocal and keeping a certain minimum reportable rate.

Generally, you won’t create these class_pred objects directly, but will instead create them indirectly through converting class probabilities into class predictions with make_class_pred() and make_two_class_pred().

library(dplyr)
data("segment_logistic")
segment_logistic
#> # A tibble: 1,010 x 3
#>    .pred_poor .pred_good Class
#>  *      <dbl>      <dbl> <fct>
#>  1    0.986      0.0142  poor 
#>  2    0.897      0.103   poor 
#>  3    0.118      0.882   good 
#>  4    0.102      0.898   good 
#>  5    0.991      0.00914 poor 
#>  6    0.633      0.367   good 
#>  7    0.770      0.230   good 
#>  8    0.00842    0.992   good 
#>  9    0.995      0.00458 poor 
#> 10    0.765      0.235   poor 
#> # … with 1,000 more rows

# Convert probabilities into predictions
# > 0.5 = good
# < 0.5 = poor
segment_logistic_thresh <- segment_logistic %>%
  mutate(
    .pred = make_two_class_pred(
      estimate = .pred_good, 
      levels = levels(Class), 
      threshold = 0.5
    )
  )

segment_logistic_thresh
#> # A tibble: 1,010 x 4
#>    .pred_poor .pred_good Class      .pred
#>         <dbl>      <dbl> <fct> <clss_prd>
#>  1    0.986      0.0142  poor        poor
#>  2    0.897      0.103   poor        poor
#>  3    0.118      0.882   good        good
#>  4    0.102      0.898   good        good
#>  5    0.991      0.00914 poor        poor
#>  6    0.633      0.367   good        poor
#>  7    0.770      0.230   good        poor
#>  8    0.00842    0.992   good        good
#>  9    0.995      0.00458 poor        poor
#> 10    0.765      0.235   poor        poor
#> # … with 1,000 more rows
…
